// Jest Snapshot v1, https://goo.gl/fbAQLP

exports[`InviteUser 1`] = `
<div>
   
  <div>
    <div>
      <div
        class="makeStyles-headerColor-65"
      >
        <div
          class="makeStyles-marginTopXS-9 makeStyles-marginLeft2-25"
        >
          <div
            class="MuiGrid-root makeStyles-marginTopBottom2-40 MuiGrid-container MuiGrid-direction-xs-column MuiGrid-justify-xs-space-between"
          >
            <div
              class="MuiGrid-root makeStyles-marginLeftXLg-31 MuiGrid-item MuiGrid-grid-xs-10"
            >
              <button
                aria-label="Back to dashboard"
                class="MuiButtonBase-root MuiButton-root MuiButton-text makeStyles-white-394"
                data-testid="dashboard"
                tabindex="0"
                type="button"
              >
                <span
                  class="MuiButton-label"
                >
                  <span
                    class="MuiButton-startIcon MuiButton-iconSizeMedium"
                  >
                    <svg
                      aria-hidden="true"
                      class="MuiSvgIcon-root makeStyles-primary-328"
                      focusable="false"
                      style="font-size: 14px;"
                      viewBox="0 0 24 24"
                    >
                      <path
                        d="M11.67 3.87L9.9 2.1 0 12l9.9 9.9 1.77-1.77L3.54 12z"
                      />
                    </svg>
                  </span>
                  <div
                    class="makeStyles-marginTopXXS-12"
                  >
                    <p
                      class="MuiTypography-root sc-AxjAm fXZhLN MuiTypography-body2"
                    >
                      DASHBOARD
                    </p>
                  </div>
                </span>
                <span
                  class="MuiTouchRipple-root"
                />
              </button>
            </div>
            <div
              class="MuiGrid-root"
            >
              <div
                class="makeStyles-marginLeftXLg-31"
              >
                <h1
                  class="MuiTypography-root sc-AxjAm bLlmZT MuiTypography-h5"
                >
                    
                  Invite Users
                   
                </h1>
                <p
                  class="MuiTypography-root sc-AxjAm glcKic makeStyles-marginTopXLarge-280 MuiTypography-body1"
                >
                  
                   
                </p>
              </div>
            </div>
          </div>
        </div>
      </div>
    </div>
    <div
      class="MuiGrid-root makeStyles-contentRoot-1 MuiGrid-container"
    >
      <div
        class="MuiGrid-root MuiGrid-container MuiGrid-item MuiGrid-direction-xs-column"
      >
        <div
          class="MuiGrid-root MuiGrid-item"
        >
          <h4>
            Users 
          </h4>
          <form>
            <div
              class="MuiGrid-root MuiGrid-container MuiGrid-spacing-xs-2 MuiGrid-align-items-xs-center"
            >
              <div
                class="MuiGrid-root MuiGrid-container MuiGrid-spacing-xs-2 MuiGrid-item MuiGrid-justify-xs-space-between MuiGrid-grid-xs-11"
              >
                <div
                  class="MuiGrid-root MuiGrid-item MuiGrid-grid-xs-3"
                >
                  <div>
                    <div>
                      <div
                        class="MuiFormControl-root MuiTextField-root makeStyles-autoWidth-166"
                      >
                        <label
                          class="MuiFormLabel-root MuiInputLabel-root makeStyles-label-435 MuiInputLabel-formControl MuiInputLabel-animated MuiInputLabel-shrink MuiInputLabel-filled Mui-focused Mui-focused"
                          data-shrink="true"
                          for="firstName"
                          id="firstName-label"
                        >
                          First Name *
                        </label>
                        <div
                          class="MuiInputBase-root MuiFilledInput-root makeStyles-root-434 Mui-focused Mui-focused makeStyles-focused-437 MuiInputBase-formControl"
                        >
                          <input
                            aria-invalid="false"
                            class="MuiInputBase-input MuiFilledInput-input"
                            data-testid="firstName"
                            id="firstName"
                            maxlength="30"
                            type="text"
                            value=""
                          />
                        </div>
                      </div>
                    </div>
                  </div>
                </div>
                <div
                  class="MuiGrid-root MuiGrid-item MuiGrid-grid-xs-3"
                >
                  <div>
                    <div>
                      <div
                        class="MuiFormControl-root MuiTextField-root makeStyles-autoWidth-166"
                      >
                        <label
                          class="MuiFormLabel-root MuiInputLabel-root makeStyles-label-435 MuiInputLabel-formControl MuiInputLabel-animated MuiInputLabel-filled"
                          data-shrink="false"
                          for="lastName"
                          id="lastName-label"
                        >
                          Last Name *
                        </label>
                        <div
                          class="MuiInputBase-root MuiFilledInput-root makeStyles-root-434 MuiInputBase-formControl"
                        >
                          <input
                            aria-invalid="false"
                            class="MuiInputBase-input MuiFilledInput-input"
                            data-testid="lastName"
                            id="lastName"
                            maxlength="30"
                            type="text"
                            value=""
                          />
                        </div>
                      </div>
                    </div>
                  </div>
                </div>
                <div
                  class="MuiGrid-root MuiGrid-item MuiGrid-grid-xs-3"
                >
                  <div>
                    <div>
                      <div
                        class="MuiFormControl-root MuiTextField-root makeStyles-autoWidth-166"
                      >
                        <label
                          class="MuiFormLabel-root MuiInputLabel-root makeStyles-label-435 MuiInputLabel-formControl MuiInputLabel-animated MuiInputLabel-filled"
                          data-shrink="false"
                          for="email"
                          id="email-label"
                        >
                          Email *
                        </label>
                        <div
                          class="MuiInputBase-root MuiFilledInput-root makeStyles-root-434 MuiInputBase-formControl"
                        >
                          <input
                            aria-invalid="false"
                            class="MuiInputBase-input MuiFilledInput-input"
                            data-testid="email"
                            id="email"
                            type="text"
                            value=""
                          />
                        </div>
                      </div>
                    </div>
                  </div>
                </div>
                <div
                  class="MuiGrid-root MuiGrid-item MuiGrid-grid-xs-3"
                >
                  <div>
                    <div>
                      <div
                        class="MuiFormControl-root MuiTextField-root makeStyles-autoWidth-166"
                      >
                        <label
                          class="MuiFormLabel-root MuiInputLabel-root makeStyles-label-435 MuiInputLabel-formControl MuiInputLabel-animated MuiInputLabel-filled"
                          data-shrink="false"
                          for="phoneNumber"
                          id="phoneNumber-label"
                        >
                          Phone number *
                        </label>
                        <div
                          class="MuiInputBase-root MuiFilledInput-root makeStyles-root-434 MuiInputBase-formControl"
                        >
                          <input
                            aria-invalid="false"
                            class="MuiInputBase-input MuiFilledInput-input"
                            data-testid="phoneNumber"
                            id="phoneNumber"
                            maxlength="30"
                            type="text"
                            value=""
                          />
                        </div>
                      </div>
                    </div>
                  </div>
                </div>
              </div>
              <div
                class="MuiGrid-root MuiGrid-item MuiGrid-align-items-xs-center MuiGrid-justify-xs-center MuiGrid-grid-xs-1"
              >
                <button
                  class="MuiButtonBase-root MuiButton-root MuiButton-text"
                  tabindex="0"
                  type="button"
                >
                  <span
                    class="MuiButton-label"
                  >
                     X 
                  </span>
                  <span
                    class="MuiTouchRipple-root"
                  />
                </button>
              </div>
            </div>
          </form>
        </div>
        <div
          class="MuiGrid-root MuiGrid-item"
        >
          <button
            class="MuiButtonBase-root MuiButton-root MuiButton-text"
            tabindex="0"
            type="button"
          >
            <span
              class="MuiButton-label"
            >
               + Add 
            </span>
            <span
              class="MuiTouchRipple-root"
            />
          </button>
        </div>
        <div
          class="MuiGrid-root MuiGrid-item"
        >
          <h4>
            Roles and Entitlements 
          </h4>
          <div>
            <div
              class=""
            >
              <form>
                <div
                  class="MuiGrid-root MuiGrid-container MuiGrid-spacing-xs-4 MuiGrid-justify-xs-space-between"
                >
                  <div
                    class="MuiGrid-root MuiGrid-container MuiGrid-spacing-xs-2 MuiGrid-item MuiGrid-grid-xs-8"
                  >
                    <div
                      class="MuiGrid-root MuiGrid-item MuiGrid-grid-xs-4"
                    >
                      <div
                        class="MuiFormControl-root MuiTextField-root makeStyles-autoWidth-166"
                      >
                        <label
                          class="MuiFormLabel-root MuiInputLabel-root MuiInputLabel-formControl MuiInputLabel-animated MuiInputLabel-filled"
                          data-shrink="false"
                          for="role"
                          id="role-label"
                        >
                          Role
                        </label>
                        <div
                          class="MuiInputBase-root MuiFilledInput-root makeStyles-root-434 MuiInputBase-formControl"
                        >
                          <div
                            aria-haspopup="listbox"
                            aria-labelledby="role-label role"
                            class="MuiSelect-root MuiSelect-select MuiSelect-selectMenu MuiSelect-filled MuiInputBase-input MuiFilledInput-input"
                            id="role"
                            role="button"
                            tabindex="0"
                          >
                            <span>
                              ​
                            </span>
                          </div>
                          <input
                            aria-hidden="true"
                            class="MuiSelect-nativeInput"
                            data-testid="role"
                            id="role"
                            tabindex="-1"
                            value=""
                          />
                          <svg
                            aria-hidden="true"
                            class="MuiSvgIcon-root MuiSelect-icon MuiSelect-iconFilled"
                            focusable="false"
                            viewBox="0 0 24 24"
                          >
                            <path
                              d="M7 10l5 5 5-5z"
                            />
                          </svg>
                        </div>
                      </div>
                    </div>
                  </div>
                </div>
              </form>
              <br />
              <br />
            </div>
          </div>
        </div>
      </div>
      <div
        class="MuiGrid-root makeStyles-marginBottomXS-8 MuiGrid-container MuiGrid-justify-xs-flex-end"
      >
        <div
          class="MuiGrid-root makeStyles-marginRight2-27 MuiGrid-item"
        >
          <button
            class="MuiButtonBase-root MuiButton-root MuiButton-text makeStyles-tertiary-309"
            data-testid="cancel"
            tabindex="0"
            type="button"
          >
            <span
              class="MuiButton-label"
            >
               Cancel 
            </span>
            <span
              class="MuiTouchRipple-root"
            />
          </button>
        </div>
        <div
          class="MuiGrid-root makeStyles-marginRight2-27 MuiGrid-item"
        >
          <button
            class="MuiButtonBase-root MuiButton-root MuiButton-text makeStyles-primary-306 MuiButton-textPrimary"
            data-testid="submit"
            tabindex="0"
            type="submit"
            value="submit"
          >
            <span
              class="MuiButton-label"
            >
               Invite 
            </span>
            <span
              class="MuiTouchRipple-root"
            />
          </button>
        </div>
      </div>
    </div>
  </div>
   
</div>
`;
